{
	"additionalNodes": [],
	"additionalParameters": {
		"root": {
			"height": 128,
			"width": 239
		}
	},
	"inputs": [ {
		"command": "Variable",
		"name": "transporteeID"
	}, {
		"command": "Variable",
		"name": "transporterID"
	} ],
	"outputs": [],
	"properties": {
		"07qOC3pX7OWk7H59V78AK5DsSMwhprS1": {
			"height": 95,
			"title": "store",
			"width": 698,
			"x": 1437,
			"y": 11
		},
		"2rCfpvGC5sL3zaBvXYCKdEe9YuroAKNi": {
			"height": 54,
			"title": "failure",
			"width": 131,
			"x": 1980,
			"y": 232
		},
		"7Mn3FfErcHYXHC9Xc9yf944ghmFDMJOV": {
			"height": 60,
			"title": "repeat",
			"width": 131,
			"x": 1522,
			"y": 379
		},
		"8A8vpYeRmn9xiL6ipIi00TlEdam6kJn0": {
			"height": 54,
			"title": "success",
			"width": 133,
			"x": 1579,
			"y": 298
		},
		"DMyOd6HboE1ErCoOFoiXpC2ylBxh1BGH": {
			"height": 70,
			"title": "parallel",
			"width": 202,
			"x": 838,
			"y": 150
		},
		"J9Lut8zqzdOx53rs6Ljykt6eL9mY0Z1P": {
			"height": 60,
			"title": "sequence",
			"width": 143,
			"x": 1979,
			"y": 151
		},
		"K4e6RV6BMlDrC1vS2L8ttLaft2c9uC9w": {
			"height": 110,
			"title": "reference",
			"width": 252,
			"x": 913,
			"y": -291
		},
		"KvNAF9JKoE766rb4slxU4Hc1TOdJOMrL": {
			"height": 90,
			"title": "luaCondition",
			"width": 418,
			"x": 1074,
			"y": 303
		},
		"PLBXg4wNYiKzMVqB57AUU8QRWUTjsV4u": {
			"height": 112,
			"title": "nota_pilar_sandsail.safeUnload",
			"width": 260,
			"x": 2196,
			"y": 216
		},
		"Qdo20l9l31c8vl4z6IT4HI0xh376aOSr": {
			"height": 90,
			"title": "luaCondition",
			"width": 518,
			"x": 1433,
			"y": 173
		},
		"SH2upjRn5dmZgBELPtxmgLnGl3ZNDOlA": {
			"height": 172,
			"title": "reference",
			"width": 458,
			"x": 912,
			"y": -187
		},
		"TR6UH50i1m8Y3jC0ReyTXcvRobxkF65U": {
			"height": 54,
			"title": "failure",
			"width": 131,
			"x": 633,
			"y": 119
		},
		"U4Wnc3RXKF9TzTk5f2VTfcqTan68MPU2": {
			"height": 60,
			"title": "repeat",
			"width": 131,
			"x": 1079,
			"y": 102
		},
		"cJetP3rI22BoiOUmildq7aOrelLiAEe8": {
			"height": 88,
			"title": "luaCondition",
			"width": 335,
			"x": 265,
			"y": 13
		},
		"eFkj71fAsLKMn5az4Xi2GdifLVDlJhwJ": {
			"height": 72,
			"title": "wait",
			"width": 131,
			"x": 2202,
			"y": 147
		},
		"mcBxmBspBDZavAj8xmifQcNUKLlvxv4s": {
			"height": 172,
			"title": "reference",
			"width": 256,
			"x": 2192,
			"y": -24
		},
		"o3HSaIU8kM9W3V6mle3LZe2qebSK5ciQ": {
			"height": 60,
			"title": "sequence",
			"width": 143,
			"x": 1241,
			"y": 102
		},
		"ocPqGX1AGt5WLdAtAWi3iuCyREhtPh5h": {
			"height": 54,
			"title": "failure",
			"width": 131,
			"x": 1703,
			"y": 377
		},
		"owNf03qKXHdzNPvP8Twyb29CrX6cSHT4": {
			"height": 60,
			"title": "sequence",
			"width": 143,
			"x": 658,
			"y": 23
		},
		"u736UFcKbtV2MbJcR621JScBZytHck6D": {
			"height": 92,
			"title": "nota_pilar_sandsail.safeLoad",
			"width": 247,
			"x": 908,
			"y": -12
		}
	},
	"roles": [ {
		"categories": [],
		"name": "Role 0"
	} ],
	"root": {
		"children": [ {
			"children": [ {
				"children": [],
				"id": "K4e6RV6BMlDrC1vS2L8ttLaft2c9uC9w",
				"nodeType": "reference",
				"parameters": [ {
					"name": "behaviourName",
					"value": "nota_uhlik_map.CreateGrid"
				} ],
				"referenceInputs": [],
				"referenceOutputs": []
			}, {
				"children": [],
				"id": "SH2upjRn5dmZgBELPtxmgLnGl3ZNDOlA",
				"nodeType": "reference",
				"parameters": [ {
					"name": "behaviourName",
					"value": "nota_uhlik_map.MoveInGrid"
				} ],
				"referenceInputs": [ {
					"name": "unitID",
					"value": "transporterID"
				}, {
					"name": "target",
					"value": "nota_uhlik_map.GetUnitsPositions({transporteeID})[1]"
				}, {
					"name": "debug",
					"value": "false"
				} ],
				"referenceOutputs": []
			}, {
				"children": [],
				"id": "u736UFcKbtV2MbJcR621JScBZytHck6D",
				"nodeType": "luaCommand",
				"parameters": [ {
					"name": "transporteeID",
					"value": "transporteeID"
				}, {
					"name": "transporterID",
					"value": "transporterID"
				}, {
					"name": "scriptName",
					"value": "nota_pilar_sandsail.safeLoad"
				} ],
				"scriptName": "nota_pilar_sandsail.safeLoad"
			}, {
				"children": [ {
					"children": [ {
						"children": [ {
							"children": [],
							"id": "07qOC3pX7OWk7H59V78AK5DsSMwhprS1",
							"nodeType": "luaCommand",
							"parameters": [ {
								"name": "var",
								"value": "unloadPos"
							}, {
								"name": "value",
								"value": "core.MissionInfo().safeArea.center + Vec3(math.random(500) - 250, 0, math.random(500) - 250)"
							}, {
								"name": "scriptName",
								"value": "store"
							} ],
							"scriptName": "store"
						}, {
							"children": [ {
								"children": [ {
									"children": [],
									"id": "mcBxmBspBDZavAj8xmifQcNUKLlvxv4s",
									"nodeType": "reference",
									"parameters": [ {
										"name": "behaviourName",
										"value": "nota_uhlik_map.MoveInGrid"
									} ],
									"referenceInputs": [ {
										"name": "unitID",
										"value": "transporterID"
									}, {
										"name": "target",
										"value": "unloadPos"
									}, {
										"name": "debug",
										"value": "nil"
									} ],
									"referenceOutputs": []
								}, {
									"children": [],
									"id": "eFkj71fAsLKMn5az4Xi2GdifLVDlJhwJ",
									"nodeType": "wait",
									"parameters": [ {
										"name": "time",
										"value": 2
									} ]
								}, {
									"children": [],
									"id": "PLBXg4wNYiKzMVqB57AUU8QRWUTjsV4u",
									"nodeType": "luaCommand",
									"parameters": [ {
										"name": "transporteeID",
										"value": "transporteeID"
									}, {
										"name": "transporterID",
										"value": "transporterID"
									}, {
										"name": "position",
										"value": "unloadPos"
									}, {
										"name": "scriptName",
										"value": "nota_pilar_sandsail.safeUnload"
									} ],
									"scriptName": "nota_pilar_sandsail.safeUnload"
								} ],
								"id": "J9Lut8zqzdOx53rs6Ljykt6eL9mY0Z1P",
								"nodeType": "sequence",
								"parameters": []
							}, {
								"children": [],
								"id": "2rCfpvGC5sL3zaBvXYCKdEe9YuroAKNi",
								"nodeType": "failure",
								"parameters": []
							} ],
							"id": "Qdo20l9l31c8vl4z6IT4HI0xh376aOSr",
							"nodeType": "luaCondition",
							"parameters": [ {
								"name": "expression",
								"value": "nota_pilar_sandsail.isEmpty(unloadPos, transporterID, transporteeID)"
							}, {
								"name": "repeat",
								"value": "true"
							} ]
						} ],
						"id": "o3HSaIU8kM9W3V6mle3LZe2qebSK5ciQ",
						"nodeType": "sequence",
						"parameters": []
					} ],
					"id": "U4Wnc3RXKF9TzTk5f2VTfcqTan68MPU2",
					"nodeType": "repeat",
					"parameters": []
				}, {
					"children": [ {
						"children": [],
						"id": "8A8vpYeRmn9xiL6ipIi00TlEdam6kJn0",
						"nodeType": "success",
						"parameters": []
					}, {
						"children": [ {
							"children": [],
							"id": "ocPqGX1AGt5WLdAtAWi3iuCyREhtPh5h",
							"nodeType": "failure",
							"parameters": []
						} ],
						"id": "7Mn3FfErcHYXHC9Xc9yf944ghmFDMJOV",
						"nodeType": "repeat",
						"parameters": []
					} ],
					"id": "KvNAF9JKoE766rb4slxU4Hc1TOdJOMrL",
					"nodeType": "luaCondition",
					"parameters": [ {
						"name": "expression",
						"value": "Spring.GetUnitTransporter(transporteeID) == nil"
					}, {
						"name": "repeat",
						"value": "true"
					} ]
				} ],
				"id": "DMyOd6HboE1ErCoOFoiXpC2ylBxh1BGH",
				"nodeType": "parallel",
				"parameters": [ {
					"name": "mode",
					"value": "any-success"
				} ]
			} ],
			"id": "owNf03qKXHdzNPvP8Twyb29CrX6cSHT4",
			"nodeType": "sequence",
			"parameters": []
		}, {
			"children": [],
			"id": "TR6UH50i1m8Y3jC0ReyTXcvRobxkF65U",
			"nodeType": "failure",
			"parameters": []
		} ],
		"id": "cJetP3rI22BoiOUmildq7aOrelLiAEe8",
		"nodeType": "luaCondition",
		"parameters": [ {
			"name": "expression",
			"value": "transporteeID ~= nil and transporterID ~= nil"
		}, {
			"name": "repeat",
			"value": "false"
		} ]
	}
}